%YAML 1.1
%TAG !u! tag:unity3d.com,2011:
--- !u!1 &6137425861580720833
GameObject:
  m_ObjectHideFlags: 0
  m_CorrespondingSourceObject: {fileID: 0}
  m_PrefabInstance: {fileID: 0}
  m_PrefabAsset: {fileID: 0}
  serializedVersion: 6
  m_Component:
  - component: {fileID: 5954180155279853295}
  - component: {fileID: 5592692052965275194}
  - component: {fileID: 3073552832311904769}
  m_Layer: 31
  m_Name: Layer1
  m_TagString: Untagged
  m_Icon: {fileID: 0}
  m_NavMeshLayer: 0
  m_StaticEditorFlags: 0
  m_IsActive: 1
--- !u!4 &5954180155279853295
Transform:
  m_ObjectHideFlags: 0
  m_CorrespondingSourceObject: {fileID: 0}
  m_PrefabInstance: {fileID: 0}
  m_PrefabAsset: {fileID: 0}
  m_GameObject: {fileID: 6137425861580720833}
  m_LocalRotation: {x: -0, y: -0, z: -0, w: 1}
  m_LocalPosition: {x: 0, y: 0, z: 0}
  m_LocalScale: {x: 1, y: 1, z: 1}
  m_Children: []
  m_Father: {fileID: 8766975893125920686}
  m_RootOrder: 0
  m_LocalEulerAnglesHint: {x: 0, y: 0, z: 0}
--- !u!1839735485 &5592692052965275194
Tilemap:
  m_ObjectHideFlags: 0
  m_CorrespondingSourceObject: {fileID: 0}
  m_PrefabInstance: {fileID: 0}
  m_PrefabAsset: {fileID: 0}
  m_GameObject: {fileID: 6137425861580720833}
  m_Enabled: 1
  m_Tiles:
  - first: {x: -1, y: -2, z: 0}
    second:
      serializedVersion: 2
      m_TileIndex: 20
      m_TileSpriteIndex: 20
      m_TileMatrixIndex: 0
      m_TileColorIndex: 0
      m_TileObjectToInstantiateIndex: 65535
      dummyAlignment: 0
      m_AllTileFlags: 1073741825
  - first: {x: 0, y: -2, z: 0}
    second:
      serializedVersion: 2
      m_TileIndex: 21
      m_TileSpriteIndex: 21
      m_TileMatrixIndex: 0
      m_TileColorIndex: 0
      m_TileObjectToInstantiateIndex: 65535
      dummyAlignment: 0
      m_AllTileFlags: 1073741825
  - first: {x: 1, y: -2, z: 0}
    second:
      serializedVersion: 2
      m_TileIndex: 22
      m_TileSpriteIndex: 22
      m_TileMatrixIndex: 0
      m_TileColorIndex: 0
      m_TileObjectToInstantiateIndex: 65535
      dummyAlignment: 0
      m_AllTileFlags: 1073741825
  - first: {x: 2, y: -2, z: 0}
    second:
      serializedVersion: 2
      m_TileIndex: 23
      m_TileSpriteIndex: 23
      m_TileMatrixIndex: 0
      m_TileColorIndex: 0
      m_TileObjectToInstantiateIndex: 65535
      dummyAlignment: 0
      m_AllTileFlags: 1073741825
  - first: {x: 3, y: -2, z: 0}
    second:
      serializedVersion: 2
      m_TileIndex: 24
      m_TileSpriteIndex: 24
      m_TileMatrixIndex: 0
      m_TileColorIndex: 0
      m_TileObjectToInstantiateIndex: 65535
      dummyAlignment: 0
      m_AllTileFlags: 1073741825
  - first: {x: 4, y: -2, z: 0}
    second:
      serializedVersion: 2
      m_TileIndex: 25
      m_TileSpriteIndex: 25
      m_TileMatrixIndex: 0
      m_TileColorIndex: 0
      m_TileObjectToInstantiateIndex: 65535
      dummyAlignment: 0
      m_AllTileFlags: 1073741825
  - first: {x: 5, y: -2, z: 0}
    second:
      serializedVersion: 2
      m_TileIndex: 26
      m_TileSpriteIndex: 26
      m_TileMatrixIndex: 0
      m_TileColorIndex: 0
      m_TileObjectToInstantiateIndex: 65535
      dummyAlignment: 0
      m_AllTileFlags: 1073741825
  - first: {x: 6, y: -2, z: 0}
    second:
      serializedVersion: 2
      m_TileIndex: 27
      m_TileSpriteIndex: 27
      m_TileMatrixIndex: 0
      m_TileColorIndex: 0
      m_TileObjectToInstantiateIndex: 65535
      dummyAlignment: 0
      m_AllTileFlags: 1073741825
  - first: {x: 7, y: -2, z: 0}
    second:
      serializedVersion: 2
      m_TileIndex: 28
      m_TileSpriteIndex: 28
      m_TileMatrixIndex: 0
      m_TileColorIndex: 0
      m_TileObjectToInstantiateIndex: 65535
      dummyAlignment: 0
      m_AllTileFlags: 1073741825
  - first: {x: 8, y: -2, z: 0}
    second:
      serializedVersion: 2
      m_TileIndex: 29
      m_TileSpriteIndex: 29
      m_TileMatrixIndex: 0
      m_TileColorIndex: 0
      m_TileObjectToInstantiateIndex: 65535
      dummyAlignment: 0
      m_AllTileFlags: 1073741825
  - first: {x: -1, y: -1, z: 0}
    second:
      serializedVersion: 2
      m_TileIndex: 10
      m_TileSpriteIndex: 10
      m_TileMatrixIndex: 0
      m_TileColorIndex: 0
      m_TileObjectToInstantiateIndex: 65535
      dummyAlignment: 0
      m_AllTileFlags: 1073741825
  - first: {x: 0, y: -1, z: 0}
    second:
      serializedVersion: 2
      m_TileIndex: 11
      m_TileSpriteIndex: 11
      m_TileMatrixIndex: 0
      m_TileColorIndex: 0
      m_TileObjectToInstantiateIndex: 65535
      dummyAlignment: 0
      m_AllTileFlags: 1073741825
  - first: {x: 1, y: -1, z: 0}
    second:
      serializedVersion: 2
      m_TileIndex: 12
      m_TileSpriteIndex: 12
      m_TileMatrixIndex: 0
      m_TileColorIndex: 0
      m_TileObjectToInstantiateIndex: 65535
      dummyAlignment: 0
      m_AllTileFlags: 1073741825
  - first: {x: 2, y: -1, z: 0}
    second:
      serializedVersion: 2
      m_TileIndex: 13
      m_TileSpriteIndex: 13
      m_TileMatrixIndex: 0
      m_TileColorIndex: 0
      m_TileObjectToInstantiateIndex: 65535
      dummyAlignment: 0
      m_AllTileFlags: 1073741825
  - first: {x: 3, y: -1, z: 0}
    second:
      serializedVersion: 2
      m_TileIndex: 14
      m_TileSpriteIndex: 14
      m_TileMatrixIndex: 0
      m_TileColorIndex: 0
      m_TileObjectToInstantiateIndex: 65535
      dummyAlignment: 0
      m_AllTileFlags: 1073741825
  - first: {x: 4, y: -1, z: 0}
    second:
      serializedVersion: 2
      m_TileIndex: 15
      m_TileSpriteIndex: 15
      m_TileMatrixIndex: 0
      m_TileColorIndex: 0
      m_TileObjectToInstantiateIndex: 65535
      dummyAlignment: 0
      m_AllTileFlags: 1073741825
  - first: {x: 5, y: -1, z: 0}
    second:
      serializedVersion: 2
      m_TileIndex: 16
      m_TileSpriteIndex: 16
      m_TileMatrixIndex: 0
      m_TileColorIndex: 0
      m_TileObjectToInstantiateIndex: 65535
      dummyAlignment: 0
      m_AllTileFlags: 1073741825
  - first: {x: 6, y: -1, z: 0}
    second:
      serializedVersion: 2
      m_TileIndex: 17
      m_TileSpriteIndex: 17
      m_TileMatrixIndex: 0
      m_TileColorIndex: 0
      m_TileObjectToInstantiateIndex: 65535
      dummyAlignment: 0
      m_AllTileFlags: 1073741825
  - first: {x: 7, y: -1, z: 0}
    second:
      serializedVersion: 2
      m_TileIndex: 18
      m_TileSpriteIndex: 18
      m_TileMatrixIndex: 0
      m_TileColorIndex: 0
      m_TileObjectToInstantiateIndex: 65535
      dummyAlignment: 0
      m_AllTileFlags: 1073741825
  - first: {x: 8, y: -1, z: 0}
    second:
      serializedVersion: 2
      m_TileIndex: 19
      m_TileSpriteIndex: 19
      m_TileMatrixIndex: 0
      m_TileColorIndex: 0
      m_TileObjectToInstantiateIndex: 65535
      dummyAlignment: 0
      m_AllTileFlags: 1073741825
  - first: {x: -1, y: 0, z: 0}
    second:
      serializedVersion: 2
      m_TileIndex: 0
      m_TileSpriteIndex: 0
      m_TileMatrixIndex: 0
      m_TileColorIndex: 0
      m_TileObjectToInstantiateIndex: 65535
      dummyAlignment: 0
      m_AllTileFlags: 1073741825
  - first: {x: 0, y: 0, z: 0}
    second:
      serializedVersion: 2
      m_TileIndex: 1
      m_TileSpriteIndex: 1
      m_TileMatrixIndex: 0
      m_TileColorIndex: 0
      m_TileObjectToInstantiateIndex: 65535
      dummyAlignment: 0
      m_AllTileFlags: 1073741825
  - first: {x: 1, y: 0, z: 0}
    second:
      serializedVersion: 2
      m_TileIndex: 2
      m_TileSpriteIndex: 2
      m_TileMatrixIndex: 0
      m_TileColorIndex: 0
      m_TileObjectToInstantiateIndex: 65535
      dummyAlignment: 0
      m_AllTileFlags: 1073741825
  - first: {x: 2, y: 0, z: 0}
    second:
      serializedVersion: 2
      m_TileIndex: 3
      m_TileSpriteIndex: 3
      m_TileMatrixIndex: 0
      m_TileColorIndex: 0
      m_TileObjectToInstantiateIndex: 65535
      dummyAlignment: 0
      m_AllTileFlags: 1073741825
  - first: {x: 3, y: 0, z: 0}
    second:
      serializedVersion: 2
      m_TileIndex: 4
      m_TileSpriteIndex: 4
      m_TileMatrixIndex: 0
      m_TileColorIndex: 0
      m_TileObjectToInstantiateIndex: 65535
      dummyAlignment: 0
      m_AllTileFlags: 1073741825
  - first: {x: 4, y: 0, z: 0}
    second:
      serializedVersion: 2
      m_TileIndex: 5
      m_TileSpriteIndex: 5
      m_TileMatrixIndex: 0
      m_TileColorIndex: 0
      m_TileObjectToInstantiateIndex: 65535
      dummyAlignment: 0
      m_AllTileFlags: 1073741825
  - first: {x: 5, y: 0, z: 0}
    second:
      serializedVersion: 2
      m_TileIndex: 6
      m_TileSpriteIndex: 6
      m_TileMatrixIndex: 0
      m_TileColorIndex: 0
      m_TileObjectToInstantiateIndex: 65535
      dummyAlignment: 0
      m_AllTileFlags: 1073741825
  - first: {x: 6, y: 0, z: 0}
    second:
      serializedVersion: 2
      m_TileIndex: 7
      m_TileSpriteIndex: 7
      m_TileMatrixIndex: 0
      m_TileColorIndex: 0
      m_TileObjectToInstantiateIndex: 65535
      dummyAlignment: 0
      m_AllTileFlags: 1073741825
  - first: {x: 7, y: 0, z: 0}
    second:
      serializedVersion: 2
      m_TileIndex: 8
      m_TileSpriteIndex: 8
      m_TileMatrixIndex: 0
      m_TileColorIndex: 0
      m_TileObjectToInstantiateIndex: 65535
      dummyAlignment: 0
      m_AllTileFlags: 1073741825
  - first: {x: 8, y: 0, z: 0}
    second:
      serializedVersion: 2
      m_TileIndex: 9
      m_TileSpriteIndex: 9
      m_TileMatrixIndex: 0
      m_TileColorIndex: 0
      m_TileObjectToInstantiateIndex: 65535
      dummyAlignment: 0
      m_AllTileFlags: 1073741825
  m_AnimatedTiles: {}
  m_TileAssetArray:
  - m_RefCount: 1
    m_Data: {fileID: 11400000, guid: d233b6cd54df42a4ab42ff824cd47bf7, type: 2}
  - m_RefCount: 1
    m_Data: {fileID: 11400000, guid: de7be0ff0c1033547b1a0d361fe71ba9, type: 2}
  - m_RefCount: 1
    m_Data: {fileID: 11400000, guid: 58428376d8cc9f64096116292e5fd510, type: 2}
  - m_RefCount: 1
    m_Data: {fileID: 11400000, guid: 7760e802470584646b90f17df7962d93, type: 2}
  - m_RefCount: 1
    m_Data: {fileID: 11400000, guid: 18531f27fe851024d964cab09de66c8a, type: 2}
  - m_RefCount: 1
    m_Data: {fileID: 11400000, guid: b018c3d5cc7ad4d468f90539cbdaff13, type: 2}
  - m_RefCount: 1
    m_Data: {fileID: 11400000, guid: 41e6604eb2a21444fa0b13935df0430d, type: 2}
  - m_RefCount: 1
    m_Data: {fileID: 11400000, guid: 2c677e3f38cde4740b95728008359153, type: 2}
  - m_RefCount: 1
    m_Data: {fileID: 11400000, guid: 4d495bc04d1b8b844a7a823b27ef3aca, type: 2}
  - m_RefCount: 1
    m_Data: {fileID: 11400000, guid: fc2482885accc604e8a9ace437df25a2, type: 2}
  - m_RefCount: 1
    m_Data: {fileID: 11400000, guid: e3093bbec160e964799a97ee02feaff7, type: 2}
  - m_RefCount: 1
    m_Data: {fileID: 11400000, guid: 8da49783df872054eb25d15443968c19, type: 2}
  - m_RefCount: 1
    m_Data: {fileID: 11400000, guid: 44f5560ce71f0ae40a63a8839d8ac6e7, type: 2}
  - m_RefCount: 1
    m_Data: {fileID: 11400000, guid: 3711a398fed7b5d43a5f83f03615cedb, type: 2}
  - m_RefCount: 1
    m_Data: {fileID: 11400000, guid: 4a32f50c434a1eb4383cec1c2211ba92, type: 2}
  - m_RefCount: 1
    m_Data: {fileID: 11400000, guid: e3776cacb79ff4443bdac9ed704eef8d, type: 2}
  - m_RefCount: 1
    m_Data: {fileID: 11400000, guid: 90c07851a89c3834c8b7163a2da5fa12, type: 2}
  - m_RefCount: 1
    m_Data: {fileID: 11400000, guid: 4676a4b1456bb2f488530793342028a7, type: 2}
  - m_RefCount: 1
    m_Data: {fileID: 11400000, guid: e2317934e874a8244b41adbffee26749, type: 2}
  - m_RefCount: 1
    m_Data: {fileID: 11400000, guid: 0462d6d32c9f34147972284a2addd564, type: 2}
  - m_RefCount: 1
    m_Data: {fileID: 11400000, guid: feb1815e2e6c7f4418e7948317dc3920, type: 2}
  - m_RefCount: 1
    m_Data: {fileID: 11400000, guid: 4cb9f03cc9d9d0045b58687b7de62e9c, type: 2}
  - m_RefCount: 1
    m_Data: {fileID: 11400000, guid: ea6e77173158436488c6e33fef8df16b, type: 2}
  - m_RefCount: 1
    m_Data: {fileID: 11400000, guid: b28c5d4f4be970f439e3bd76efb55fbb, type: 2}
  - m_RefCount: 1
    m_Data: {fileID: 11400000, guid: 7ecda7c7a408ff74eac542b14a609755, type: 2}
  - m_RefCount: 1
    m_Data: {fileID: 11400000, guid: 36707c12b8fb417409519861f8729a49, type: 2}
  - m_RefCount: 1
    m_Data: {fileID: 11400000, guid: c36c3c36eb6ae4a4e890905d861d8150, type: 2}
  - m_RefCount: 1
    m_Data: {fileID: 11400000, guid: dd7610398bace62408ab332dc4525e20, type: 2}
  - m_RefCount: 1
    m_Data: {fileID: 11400000, guid: 4074ce2537e5c364ba96b933ec9c6eb1, type: 2}
  - m_RefCount: 1
    m_Data: {fileID: 11400000, guid: 146e80189f6771c45b4ad7576d6ddd98, type: 2}
  m_TileSpriteArray:
  - m_RefCount: 1
    m_Data: {fileID: 21300000, guid: 659f98df680c63b4e907a3b8096ad3b6, type: 3}
  - m_RefCount: 1
    m_Data: {fileID: 21300002, guid: 659f98df680c63b4e907a3b8096ad3b6, type: 3}
  - m_RefCount: 1
    m_Data: {fileID: 21300004, guid: 659f98df680c63b4e907a3b8096ad3b6, type: 3}
  - m_RefCount: 1
    m_Data: {fileID: 21300006, guid: 659f98df680c63b4e907a3b8096ad3b6, type: 3}
  - m_RefCount: 1
    m_Data: {fileID: 21300008, guid: 659f98df680c63b4e907a3b8096ad3b6, type: 3}
  - m_RefCount: 1
    m_Data: {fileID: 21300010, guid: 659f98df680c63b4e907a3b8096ad3b6, type: 3}
  - m_RefCount: 1
    m_Data: {fileID: 21300012, guid: 659f98df680c63b4e907a3b8096ad3b6, type: 3}
  - m_RefCount: 1
    m_Data: {fileID: 21300014, guid: 659f98df680c63b4e907a3b8096ad3b6, type: 3}
  - m_RefCount: 1
    m_Data: {fileID: 21300016, guid: 659f98df680c63b4e907a3b8096ad3b6, type: 3}
  - m_RefCount: 1
    m_Data: {fileID: 21300018, guid: 659f98df680c63b4e907a3b8096ad3b6, type: 3}
  - m_RefCount: 1
    m_Data: {fileID: 21300020, guid: 659f98df680c63b4e907a3b8096ad3b6, type: 3}
  - m_RefCount: 1
    m_Data: {fileID: 21300022, guid: 659f98df680c63b4e907a3b8096ad3b6, type: 3}
  - m_RefCount: 1
    m_Data: {fileID: 21300024, guid: 659f98df680c63b4e907a3b8096ad3b6, type: 3}
  - m_RefCount: 1
    m_Data: {fileID: 21300026, guid: 659f98df680c63b4e907a3b8096ad3b6, type: 3}
  - m_RefCount: 1
    m_Data: {fileID: 21300028, guid: 659f98df680c63b4e907a3b8096ad3b6, type: 3}
  - m_RefCount: 1
    m_Data: {fileID: 21300030, guid: 659f98df680c63b4e907a3b8096ad3b6, type: 3}
  - m_RefCount: 1
    m_Data: {fileID: 21300032, guid: 659f98df680c63b4e907a3b8096ad3b6, type: 3}
  - m_RefCount: 1
    m_Data: {fileID: 21300034, guid: 659f98df680c63b4e907a3b8096ad3b6, type: 3}
  - m_RefCount: 1
    m_Data: {fileID: 21300036, guid: 659f98df680c63b4e907a3b8096ad3b6, type: 3}
  - m_RefCount: 1
    m_Data: {fileID: 21300038, guid: 659f98df680c63b4e907a3b8096ad3b6, type: 3}
  - m_RefCount: 1
    m_Data: {fileID: 21300040, guid: 659f98df680c63b4e907a3b8096ad3b6, type: 3}
  - m_RefCount: 1
    m_Data: {fileID: 21300042, guid: 659f98df680c63b4e907a3b8096ad3b6, type: 3}
  - m_RefCount: 1
    m_Data: {fileID: 21300044, guid: 659f98df680c63b4e907a3b8096ad3b6, type: 3}
  - m_RefCount: 1
    m_Data: {fileID: 21300046, guid: 659f98df680c63b4e907a3b8096ad3b6, type: 3}
  - m_RefCount: 1
    m_Data: {fileID: 21300048, guid: 659f98df680c63b4e907a3b8096ad3b6, type: 3}
  - m_RefCount: 1
    m_Data: {fileID: 21300050, guid: 659f98df680c63b4e907a3b8096ad3b6, type: 3}
  - m_RefCount: 1
    m_Data: {fileID: 21300052, guid: 659f98df680c63b4e907a3b8096ad3b6, type: 3}
  - m_RefCount: 1
    m_Data: {fileID: 21300054, guid: 659f98df680c63b4e907a3b8096ad3b6, type: 3}
  - m_RefCount: 1
    m_Data: {fileID: 21300056, guid: 659f98df680c63b4e907a3b8096ad3b6, type: 3}
  - m_RefCount: 1
    m_Data: {fileID: 21300058, guid: 659f98df680c63b4e907a3b8096ad3b6, type: 3}
  m_TileMatrixArray:
  - m_RefCount: 30
    m_Data:
      e00: 1
      e01: 0
      e02: 0
      e03: 0
      e10: 0
      e11: 1
      e12: 0
      e13: 0
      e20: 0
      e21: 0
      e22: 1
      e23: 0
      e30: 0
      e31: 0
      e32: 0
      e33: 1
  m_TileColorArray:
  - m_RefCount: 30
    m_Data: {r: 1, g: 1, b: 1, a: 1}
  m_TileObjectToInstantiateArray: []
  m_AnimationFrameRate: 1
  m_Color: {r: 1, g: 1, b: 1, a: 1}
  m_Origin: {x: -1, y: -2, z: 0}
  m_Size: {x: 10, y: 3, z: 1}
  m_TileAnchor: {x: 0.5, y: 0.5, z: 0}
  m_TileOrientation: 0
  m_TileOrientationMatrix:
    e00: 1
    e01: 0
    e02: 0
    e03: 0
    e10: 0
    e11: 1
    e12: 0
    e13: 0
    e20: 0
    e21: 0
    e22: 1
    e23: 0
    e30: 0
    e31: 0
    e32: 0
    e33: 1
--- !u!483693784 &3073552832311904769
TilemapRenderer:
  m_ObjectHideFlags: 0
  m_CorrespondingSourceObject: {fileID: 0}
  m_PrefabInstance: {fileID: 0}
  m_PrefabAsset: {fileID: 0}
  m_GameObject: {fileID: 6137425861580720833}
  m_Enabled: 0
  m_CastShadows: 0
  m_ReceiveShadows: 0
  m_DynamicOccludee: 0
  m_MotionVectors: 1
  m_LightProbeUsage: 0
  m_ReflectionProbeUsage: 0
  m_RayTracingMode: 0
  m_RayTraceProcedural: 0
  m_RenderingLayerMask: 1
  m_RendererPriority: 0
  m_Materials:
  - {fileID: 10754, guid: 0000000000000000f000000000000000, type: 0}
  m_StaticBatchInfo:
    firstSubMesh: 0
    subMeshCount: 0
  m_StaticBatchRoot: {fileID: 0}
  m_ProbeAnchor: {fileID: 0}
  m_LightProbeVolumeOverride: {fileID: 0}
  m_ScaleInLightmap: 1
  m_ReceiveGI: 1
  m_PreserveUVs: 0
  m_IgnoreNormalsForChartDetection: 0
  m_ImportantGI: 0
  m_StitchLightmapSeams: 0
  m_SelectedEditorRenderState: 0
  m_MinimumChartSize: 4
  m_AutoUVMaxDistance: 0.5
  m_AutoUVMaxAngle: 89
  m_LightmapParameters: {fileID: 0}
  m_SortingLayerID: 0
  m_SortingLayer: 0
  m_SortingOrder: 0
  m_ChunkSize: {x: 32, y: 32, z: 32}
  m_ChunkCullingBounds: {x: 0, y: 0, z: 0}
  m_MaxChunkCount: 16
  m_MaxFrameAge: 16
  m_SortOrder: 0
  m_Mode: 0
  m_DetectChunkCullingBounds: 0
  m_MaskInteraction: 0
--- !u!1 &8066902663087277787
GameObject:
  m_ObjectHideFlags: 0
  m_CorrespondingSourceObject: {fileID: 0}
  m_PrefabInstance: {fileID: 0}
  m_PrefabAsset: {fileID: 0}
  serializedVersion: 6
  m_Component:
  - component: {fileID: 8766975893125920686}
  - component: {fileID: 7818410778773081848}
  m_Layer: 31
  m_Name: Level Map
  m_TagString: Untagged
  m_Icon: {fileID: 0}
  m_NavMeshLayer: 0
  m_StaticEditorFlags: 0
  m_IsActive: 1
--- !u!4 &8766975893125920686
Transform:
  m_ObjectHideFlags: 0
  m_CorrespondingSourceObject: {fileID: 0}
  m_PrefabInstance: {fileID: 0}
  m_PrefabAsset: {fileID: 0}
  m_GameObject: {fileID: 8066902663087277787}
  m_LocalRotation: {x: 0, y: 0, z: 0, w: 1}
  m_LocalPosition: {x: 0, y: 0, z: 0}
  m_LocalScale: {x: 1, y: 1, z: 1}
  m_Children:
  - {fileID: 5954180155279853295}
  m_Father: {fileID: 0}
  m_RootOrder: 0
  m_LocalEulerAnglesHint: {x: 0, y: 0, z: 0}
--- !u!156049354 &7818410778773081848
Grid:
  m_ObjectHideFlags: 0
  m_CorrespondingSourceObject: {fileID: 0}
  m_PrefabInstance: {fileID: 0}
  m_PrefabAsset: {fileID: 0}
  m_GameObject: {fileID: 8066902663087277787}
  m_Enabled: 1
  m_CellSize: {x: 1, y: 1, z: 0}
  m_CellGap: {x: 0, y: 0, z: 0}
  m_CellLayout: 0
  m_CellSwizzle: 0
--- !u!114 &114226210450659192
MonoBehaviour:
  m_ObjectHideFlags: 0
  m_CorrespondingSourceObject: {fileID: 0}
  m_PrefabInstance: {fileID: 0}
  m_PrefabAsset: {fileID: 0}
  m_GameObject: {fileID: 0}
  m_Enabled: 1
  m_EditorHideFlags: 0
  m_Script: {fileID: 12395, guid: 0000000000000000e000000000000000, type: 0}
  m_Name: Palette Settings
  m_EditorClassIdentifier: 
  cellSizing: 0
  m_TransparencySortMode: 0
  m_TransparencySortAxis: {x: 0, y: 0, z: 1}
